<?xml version="1.0" encoding="UTF-8" standalone="no"?>
<!-- Created with Inkscape (http://www.inkscape.org/) -->

<svg
   xmlns:dc="http://purl.org/dc/elements/1.1/"
   xmlns:cc="http://creativecommons.org/ns#"
   xmlns:rdf="http://www.w3.org/1999/02/22-rdf-syntax-ns#"
   xmlns:svg="http://www.w3.org/2000/svg"
   xmlns="http://www.w3.org/2000/svg"
   xmlns:sodipodi="http://sodipodi.sourceforge.net/DTD/sodipodi-0.dtd"
   xmlns:inkscape="http://www.inkscape.org/namespaces/inkscape"
   version="1.1"
   id="svg1261"
   xml:space="preserve"
   width="716"
   height="362"
   viewBox="0 0 716 362"
   sodipodi:docname="stack3.svg"
   inkscape:version="0.92.4 5da689c313, 2019-01-14"><metadata
     id="metadata1267"><rdf:RDF><cc:Work
         rdf:about=""><dc:format>image/svg+xml</dc:format><dc:type
           rdf:resource="http://purl.org/dc/dcmitype/StillImage" /><dc:title></dc:title></cc:Work></rdf:RDF></metadata><defs
     id="defs1265" /><sodipodi:namedview
     pagecolor="#ffffff"
     bordercolor="#666666"
     borderopacity="1"
     objecttolerance="10"
     gridtolerance="10"
     guidetolerance="10"
     inkscape:pageopacity="0"
     inkscape:pageshadow="2"
     inkscape:window-width="1596"
     inkscape:window-height="870"
     id="namedview1263"
     showgrid="false"
     inkscape:pagecheckerboard="true"
     showborder="false"
     inkscape:zoom="1.023743"
     inkscape:cx="324.75975"
     inkscape:cy="99.937013"
     inkscape:window-x="2"
     inkscape:window-y="28"
     inkscape:window-maximized="0"
     inkscape:current-layer="g1269" /><g
     id="g1269"
     inkscape:groupmode="layer"
     inkscape:label="stack3"
     transform="matrix(1.3333333,0,0,1.3333333,0,9.05e-6)"><g
       id="g2536"><path
         d="M 0,0 H 537 V 271.5 H 0 Z"
         style="fill:#ffffff;fill-opacity:0.98765396;fill-rule:nonzero;stroke:none"
         id="path1273"
         inkscape:connector-curvature="0" /><g
         transform="translate(2.0853669)"
         id="g2380"><text
           id="text1415"
           style="font-variant:normal;font-weight:500;font-size:13.91016483px;font-family:'Noto Sans Mono Med';-inkscape-font-specification:NotoSansMono-Medium;writing-mode:lr-tb;fill:#000000;fill-opacity:1;fill-rule:nonzero;stroke:none;stroke-width:0.99995083"
           transform="scale(0.99995082,1.0000492)"
           x="502.17032"
           y="114.01901"><tspan
             id="tspan1413"
             y="114.01901"
             x="502.17032"
             style="font-style:normal;font-variant:normal;font-weight:normal;font-stretch:normal;font-family:Inconsolata;-inkscape-font-specification:Inconsolata;stroke-width:0.99995083">2</tspan></text>
<g
           id="g2085"><text
             id="text1519"
             y="88.461502"
             x="23.443382"
             style="font-style:normal;font-variant:normal;font-weight:normal;font-stretch:normal;font-size:30px;line-height:1.25;font-family:Inconsolata;-inkscape-font-specification:Inconsolata;letter-spacing:0px;word-spacing:0px;fill:#000000;fill-opacity:1;stroke:none;stroke-width:0.75"
             xml:space="preserve"><tspan
               style="font-style:normal;font-variant:normal;font-weight:normal;font-stretch:normal;font-size:18px;font-family:Inconsolata;-inkscape-font-specification:Inconsolata;stroke-width:0.75"
               y="88.461502"
               x="23.443382"
               id="tspan1517"
               sodipodi:role="line">factorial</tspan></text>
<g
             id="g2035"><path
               inkscape:connector-curvature="0"
               id="path1275"
               style="fill:#e6e6e6;fill-opacity:0.98765396;fill-rule:nonzero;stroke:none"
               d="m 126.496,61.547 h 346.891 v 41.949 H 126.496 Z" /><g
               id="g1687"
               transform="translate(0.23808847,-0.76250096)"><g
                 transform="translate(-4.4635429,-0.96749999)"
                 id="g1578"><g
                   id="g1546"
                   transform="translate(139.25478,1.8270037)"><g
                     id="g1540"><path
                       d="m 155.875,82.156 h 23.949 v 0.73 h -23.949 z"
                       style="fill:#000000;fill-opacity:0.98765396;fill-rule:nonzero;stroke:none"
                       id="path1536"
                       inkscape:connector-curvature="0" /><path
                       d="m 182.891,82.523 -2.297,1.329 -2.301,1.328 v -5.313 l 2.301,1.328 z"
                       style="fill:#000000;fill-opacity:0.98765396;fill-rule:nonzero;stroke:none"
                       id="path1538"
                       inkscape:connector-curvature="0" /></g><text
                     id="text1544"
                     y="88.067497"
                     x="192.67531"
                     style="font-style:normal;font-variant:normal;font-weight:normal;font-stretch:normal;font-size:30px;line-height:1.25;font-family:Inconsolata;-inkscape-font-specification:Inconsolata;letter-spacing:0px;word-spacing:0px;fill:#000000;fill-opacity:1;stroke:none;stroke-width:0.75"
                     xml:space="preserve"><tspan
                       style="font-style:normal;font-variant:normal;font-weight:normal;font-stretch:normal;font-size:18px;font-family:Inconsolata;-inkscape-font-specification:Inconsolata;stroke-width:0.75"
                       y="88.067497"
                       x="192.67531"
                       id="tspan1542"
                       sodipodi:role="line">2</tspan></text>
</g><text
                   id="text1550"
                   y="88.463501"
                   x="223.99329"
                   style="font-style:normal;font-variant:normal;font-weight:normal;font-stretch:normal;font-size:30px;line-height:1.25;font-family:Inconsolata;-inkscape-font-specification:Inconsolata;letter-spacing:0px;word-spacing:0px;fill:#000000;fill-opacity:1;stroke:none;stroke-width:0.75"
                   xml:space="preserve"><tspan
                     style="font-style:normal;font-variant:normal;font-weight:normal;font-stretch:normal;font-size:18px;font-family:Inconsolata;-inkscape-font-specification:Inconsolata;stroke-width:0.75"
                     y="88.463501"
                     x="223.99329"
                     id="tspan1548"
                     sodipodi:role="line">recurse</tspan></text>
</g><g
                 transform="translate(9.3245617)"
                 id="g1614"><g
                   transform="translate(251.14937,1.8270037)"
                   id="g1590"><g
                     id="g1584"><path
                       inkscape:connector-curvature="0"
                       id="path1580"
                       style="fill:#000000;fill-opacity:0.98765396;fill-rule:nonzero;stroke:none"
                       d="m 155.875,82.156 h 23.949 v 0.73 h -23.949 z" /><path
                       inkscape:connector-curvature="0"
                       id="path1582"
                       style="fill:#000000;fill-opacity:0.98765396;fill-rule:nonzero;stroke:none"
                       d="m 182.891,82.523 -2.297,1.329 -2.301,1.328 v -5.313 l 2.301,1.328 z" /></g><text
                     xml:space="preserve"
                     style="font-style:normal;font-variant:normal;font-weight:normal;font-stretch:normal;font-size:30px;line-height:1.25;font-family:Inconsolata;-inkscape-font-specification:Inconsolata;letter-spacing:0px;word-spacing:0px;fill:#000000;fill-opacity:1;stroke:none;stroke-width:0.75"
                     x="192.67531"
                     y="88.067497"
                     id="text1588"><tspan
                       sodipodi:role="line"
                       id="tspan1586"
                       x="192.67531"
                       y="88.067497"
                       style="font-style:normal;font-variant:normal;font-weight:normal;font-stretch:normal;font-size:18px;font-family:Inconsolata;-inkscape-font-specification:Inconsolata;stroke-width:0.75">6</tspan></text>
</g><text
                   xml:space="preserve"
                   style="font-style:normal;font-variant:normal;font-weight:normal;font-stretch:normal;font-size:30px;line-height:1.25;font-family:Inconsolata;-inkscape-font-specification:Inconsolata;letter-spacing:0px;word-spacing:0px;fill:#000000;fill-opacity:1;stroke:none;stroke-width:0.75"
                   x="346.24847"
                   y="88.463501"
                   id="text1594"><tspan
                     sodipodi:role="line"
                     id="tspan1592"
                     x="346.24847"
                     y="88.463501"
                     style="font-style:normal;font-variant:normal;font-weight:normal;font-stretch:normal;font-size:18px;font-family:Inconsolata;-inkscape-font-specification:Inconsolata;stroke-width:0.75">result</tspan></text>
</g><g
                 transform="translate(-86.933703,10.330171)"
                 id="g1658"><g
                   transform="translate(85.897639,-9.5696673)"
                   id="g1626"><g
                     id="g1620"><path
                       inkscape:connector-curvature="0"
                       id="path1616"
                       style="fill:#000000;fill-opacity:0.98765396;fill-rule:nonzero;stroke:none"
                       d="m 155.875,82.156 h 23.949 v 0.73 h -23.949 z" /><path
                       inkscape:connector-curvature="0"
                       id="path1618"
                       style="fill:#000000;fill-opacity:0.98765396;fill-rule:nonzero;stroke:none"
                       d="m 182.891,82.523 -2.297,1.329 -2.301,1.328 v -5.313 l 2.301,1.328 z" /></g><text
                     xml:space="preserve"
                     style="font-style:normal;font-variant:normal;font-weight:normal;font-stretch:normal;font-size:30px;line-height:1.25;font-family:Inconsolata;-inkscape-font-specification:Inconsolata;letter-spacing:0px;word-spacing:0px;fill:#000000;fill-opacity:1;stroke:none;stroke-width:0.75"
                     x="192.67531"
                     y="88.067497"
                     id="text1624"><tspan
                       sodipodi:role="line"
                       id="tspan1622"
                       x="192.67531"
                       y="88.067497"
                       style="font-style:normal;font-variant:normal;font-weight:normal;font-stretch:normal;font-size:18px;font-family:Inconsolata;-inkscape-font-specification:Inconsolata;stroke-width:0.75">3</tspan></text>
</g><text
                   xml:space="preserve"
                   style="font-style:normal;font-variant:normal;font-weight:normal;font-stretch:normal;font-size:30px;line-height:1.25;font-family:Inconsolata;-inkscape-font-specification:Inconsolata;letter-spacing:0px;word-spacing:0px;fill:#000000;fill-opacity:1;stroke:none;stroke-width:0.75"
                   x="223.99329"
                   y="77.066833"
                   id="text1630"><tspan
                     sodipodi:role="line"
                     id="tspan1628"
                     x="223.99329"
                     y="77.066833"
                     style="font-style:normal;font-variant:normal;font-weight:normal;font-stretch:normal;font-size:18px;font-family:Inconsolata;-inkscape-font-specification:Inconsolata;stroke-width:0.75">n</tspan></text>
</g></g></g></g><g
           id="g2187"><g
             id="g2004"><path
               inkscape:connector-curvature="0"
               id="path1321"
               style="fill:#e6e6e6;fill-opacity:0.98765396;fill-rule:nonzero;stroke:none"
               d="m 126.496,115.324 h 346.891 v 41.949 H 126.496 Z" /><g
               transform="translate(0.23808847,53.104499)"
               id="g1743"><g
                 id="g1705"
                 transform="translate(-4.4635429,-0.96749999)"><g
                   transform="translate(139.25478,1.8270037)"
                   id="g1699"><g
                     id="g1693"><path
                       inkscape:connector-curvature="0"
                       id="path1689"
                       style="fill:#000000;fill-opacity:0.98765396;fill-rule:nonzero;stroke:none"
                       d="m 155.875,82.156 h 23.949 v 0.73 h -23.949 z" /><path
                       inkscape:connector-curvature="0"
                       id="path1691"
                       style="fill:#000000;fill-opacity:0.98765396;fill-rule:nonzero;stroke:none"
                       d="m 182.891,82.523 -2.297,1.329 -2.301,1.328 v -5.313 l 2.301,1.328 z" /></g><text
                     xml:space="preserve"
                     style="font-style:normal;font-variant:normal;font-weight:normal;font-stretch:normal;font-size:30px;line-height:1.25;font-family:Inconsolata;-inkscape-font-specification:Inconsolata;letter-spacing:0px;word-spacing:0px;fill:#000000;fill-opacity:1;stroke:none;stroke-width:0.75"
                     x="192.67531"
                     y="88.067497"
                     id="text1697"><tspan
                       sodipodi:role="line"
                       id="tspan1695"
                       x="192.67531"
                       y="88.067497"
                       style="font-style:normal;font-variant:normal;font-weight:normal;font-stretch:normal;font-size:18px;font-family:Inconsolata;-inkscape-font-specification:Inconsolata;stroke-width:0.75">1</tspan></text>
</g><text
                   xml:space="preserve"
                   style="font-style:normal;font-variant:normal;font-weight:normal;font-stretch:normal;font-size:30px;line-height:1.25;font-family:Inconsolata;-inkscape-font-specification:Inconsolata;letter-spacing:0px;word-spacing:0px;fill:#000000;fill-opacity:1;stroke:none;stroke-width:0.75"
                   x="223.99329"
                   y="88.463501"
                   id="text1703"><tspan
                     sodipodi:role="line"
                     id="tspan1701"
                     x="223.99329"
                     y="88.463501"
                     style="font-style:normal;font-variant:normal;font-weight:normal;font-stretch:normal;font-size:18px;font-family:Inconsolata;-inkscape-font-specification:Inconsolata;stroke-width:0.75">recurse</tspan></text>
</g><g
                 id="g1723"
                 transform="translate(9.3245617)"><g
                   id="g1717"
                   transform="translate(251.14937,1.8270037)"><g
                     id="g1711"><path
                       d="m 155.875,82.156 h 23.949 v 0.73 h -23.949 z"
                       style="fill:#000000;fill-opacity:0.98765396;fill-rule:nonzero;stroke:none"
                       id="path1707"
                       inkscape:connector-curvature="0" /><path
                       d="m 182.891,82.523 -2.297,1.329 -2.301,1.328 v -5.313 l 2.301,1.328 z"
                       style="fill:#000000;fill-opacity:0.98765396;fill-rule:nonzero;stroke:none"
                       id="path1709"
                       inkscape:connector-curvature="0" /></g><text
                     id="text1715"
                     y="88.067497"
                     x="192.67531"
                     style="font-style:normal;font-variant:normal;font-weight:normal;font-stretch:normal;font-size:30px;line-height:1.25;font-family:Inconsolata;-inkscape-font-specification:Inconsolata;letter-spacing:0px;word-spacing:0px;fill:#000000;fill-opacity:1;stroke:none;stroke-width:0.75"
                     xml:space="preserve"><tspan
                       style="font-style:normal;font-variant:normal;font-weight:normal;font-stretch:normal;font-size:18px;font-family:Inconsolata;-inkscape-font-specification:Inconsolata;stroke-width:0.75"
                       y="88.067497"
                       x="192.67531"
                       id="tspan1713"
                       sodipodi:role="line">2</tspan></text>
</g><text
                   id="text1721"
                   y="88.463501"
                   x="346.24847"
                   style="font-style:normal;font-variant:normal;font-weight:normal;font-stretch:normal;font-size:30px;line-height:1.25;font-family:Inconsolata;-inkscape-font-specification:Inconsolata;letter-spacing:0px;word-spacing:0px;fill:#000000;fill-opacity:1;stroke:none;stroke-width:0.75"
                   xml:space="preserve"><tspan
                     style="font-style:normal;font-variant:normal;font-weight:normal;font-stretch:normal;font-size:18px;font-family:Inconsolata;-inkscape-font-specification:Inconsolata;stroke-width:0.75"
                     y="88.463501"
                     x="346.24847"
                     id="tspan1719"
                     sodipodi:role="line">result</tspan></text>
</g><g
                 id="g1741"
                 transform="translate(-86.933703,10.330171)"><g
                   id="g1735"
                   transform="translate(85.897639,-9.5696673)"><g
                     id="g1729"><path
                       d="m 155.875,82.156 h 23.949 v 0.73 h -23.949 z"
                       style="fill:#000000;fill-opacity:0.98765396;fill-rule:nonzero;stroke:none"
                       id="path1725"
                       inkscape:connector-curvature="0" /><path
                       d="m 182.891,82.523 -2.297,1.329 -2.301,1.328 v -5.313 l 2.301,1.328 z"
                       style="fill:#000000;fill-opacity:0.98765396;fill-rule:nonzero;stroke:none"
                       id="path1727"
                       inkscape:connector-curvature="0" /></g><text
                     id="text1733"
                     y="88.067497"
                     x="192.67531"
                     style="font-style:normal;font-variant:normal;font-weight:normal;font-stretch:normal;font-size:30px;line-height:1.25;font-family:Inconsolata;-inkscape-font-specification:Inconsolata;letter-spacing:0px;word-spacing:0px;fill:#000000;fill-opacity:1;stroke:none;stroke-width:0.75"
                     xml:space="preserve"><tspan
                       style="font-style:normal;font-variant:normal;font-weight:normal;font-stretch:normal;font-size:18px;font-family:Inconsolata;-inkscape-font-specification:Inconsolata;stroke-width:0.75"
                       y="88.067497"
                       x="192.67531"
                       id="tspan1731"
                       sodipodi:role="line">2</tspan></text>
</g><text
                   id="text1739"
                   y="77.066833"
                   x="223.99329"
                   style="font-style:normal;font-variant:normal;font-weight:normal;font-stretch:normal;font-size:30px;line-height:1.25;font-family:Inconsolata;-inkscape-font-specification:Inconsolata;letter-spacing:0px;word-spacing:0px;fill:#000000;fill-opacity:1;stroke:none;stroke-width:0.75"
                   xml:space="preserve"><tspan
                     style="font-style:normal;font-variant:normal;font-weight:normal;font-stretch:normal;font-size:18px;font-family:Inconsolata;-inkscape-font-specification:Inconsolata;stroke-width:0.75"
                     y="77.066833"
                     x="223.99329"
                     id="tspan1737"
                     sodipodi:role="line">n</tspan></text>
</g></g></g><text
             xml:space="preserve"
             style="font-style:normal;font-variant:normal;font-weight:normal;font-stretch:normal;font-size:30px;line-height:1.25;font-family:Inconsolata;-inkscape-font-specification:Inconsolata;letter-spacing:0px;word-spacing:0px;fill:#000000;fill-opacity:1;stroke:none;stroke-width:0.75"
             x="24.479443"
             y="142.23849"
             id="text2039"><tspan
               sodipodi:role="line"
               id="tspan2037"
               x="24.479443"
               y="142.23849"
               style="font-style:normal;font-variant:normal;font-weight:normal;font-stretch:normal;font-size:18px;font-family:Inconsolata;-inkscape-font-specification:Inconsolata;stroke-width:0.75">factorial</tspan></text>
</g><g
           id="g2153"><g
             id="g1973"><path
               inkscape:connector-curvature="0"
               id="path1355"
               style="fill:#e6e6e6;fill-opacity:0.98765396;fill-rule:nonzero;stroke:none"
               d="m 126.496,168.004 h 346.891 v 41.949 H 126.496 Z" /><g
               transform="translate(1.4890885,105.7845)"
               id="g1855"><g
                 id="g1817"
                 transform="translate(-4.4635429,-0.96749999)"><g
                   transform="translate(139.25478,1.8270037)"
                   id="g1811"><g
                     id="g1805"><path
                       inkscape:connector-curvature="0"
                       id="path1801"
                       style="fill:#000000;fill-opacity:0.98765396;fill-rule:nonzero;stroke:none"
                       d="m 155.875,82.156 h 23.949 v 0.73 h -23.949 z" /><path
                       inkscape:connector-curvature="0"
                       id="path1803"
                       style="fill:#000000;fill-opacity:0.98765396;fill-rule:nonzero;stroke:none"
                       d="m 182.891,82.523 -2.297,1.329 -2.301,1.328 v -5.313 l 2.301,1.328 z" /></g><text
                     xml:space="preserve"
                     style="font-style:normal;font-variant:normal;font-weight:normal;font-stretch:normal;font-size:30px;line-height:1.25;font-family:Inconsolata;-inkscape-font-specification:Inconsolata;letter-spacing:0px;word-spacing:0px;fill:#000000;fill-opacity:1;stroke:none;stroke-width:0.75"
                     x="192.67531"
                     y="88.067497"
                     id="text1809"><tspan
                       sodipodi:role="line"
                       id="tspan1807"
                       x="192.67531"
                       y="88.067497"
                       style="font-style:normal;font-variant:normal;font-weight:normal;font-stretch:normal;font-size:18px;font-family:Inconsolata;-inkscape-font-specification:Inconsolata;stroke-width:0.75">1</tspan></text>
</g><text
                   xml:space="preserve"
                   style="font-style:normal;font-variant:normal;font-weight:normal;font-stretch:normal;font-size:30px;line-height:1.25;font-family:Inconsolata;-inkscape-font-specification:Inconsolata;letter-spacing:0px;word-spacing:0px;fill:#000000;fill-opacity:1;stroke:none;stroke-width:0.75"
                   x="223.99329"
                   y="88.463501"
                   id="text1815"><tspan
                     sodipodi:role="line"
                     id="tspan1813"
                     x="223.99329"
                     y="88.463501"
                     style="font-style:normal;font-variant:normal;font-weight:normal;font-stretch:normal;font-size:18px;font-family:Inconsolata;-inkscape-font-specification:Inconsolata;stroke-width:0.75">recurse</tspan></text>
</g><g
                 id="g1835"
                 transform="translate(9.3245617)"><g
                   id="g1829"
                   transform="translate(251.14937,1.8270037)"><g
                     id="g1823"><path
                       d="m 155.875,82.156 h 23.949 v 0.73 h -23.949 z"
                       style="fill:#000000;fill-opacity:0.98765396;fill-rule:nonzero;stroke:none"
                       id="path1819"
                       inkscape:connector-curvature="0" /><path
                       d="m 182.891,82.523 -2.297,1.329 -2.301,1.328 v -5.313 l 2.301,1.328 z"
                       style="fill:#000000;fill-opacity:0.98765396;fill-rule:nonzero;stroke:none"
                       id="path1821"
                       inkscape:connector-curvature="0" /></g><text
                     id="text1827"
                     y="88.067497"
                     x="192.67531"
                     style="font-style:normal;font-variant:normal;font-weight:normal;font-stretch:normal;font-size:30px;line-height:1.25;font-family:Inconsolata;-inkscape-font-specification:Inconsolata;letter-spacing:0px;word-spacing:0px;fill:#000000;fill-opacity:1;stroke:none;stroke-width:0.75"
                     xml:space="preserve"><tspan
                       style="font-style:normal;font-variant:normal;font-weight:normal;font-stretch:normal;font-size:18px;font-family:Inconsolata;-inkscape-font-specification:Inconsolata;stroke-width:0.75"
                       y="88.067497"
                       x="192.67531"
                       id="tspan1825"
                       sodipodi:role="line">1</tspan></text>
</g><text
                   id="text1833"
                   y="88.463501"
                   x="346.24847"
                   style="font-style:normal;font-variant:normal;font-weight:normal;font-stretch:normal;font-size:30px;line-height:1.25;font-family:Inconsolata;-inkscape-font-specification:Inconsolata;letter-spacing:0px;word-spacing:0px;fill:#000000;fill-opacity:1;stroke:none;stroke-width:0.75"
                   xml:space="preserve"><tspan
                     style="font-style:normal;font-variant:normal;font-weight:normal;font-stretch:normal;font-size:18px;font-family:Inconsolata;-inkscape-font-specification:Inconsolata;stroke-width:0.75"
                     y="88.463501"
                     x="346.24847"
                     id="tspan1831"
                     sodipodi:role="line">result</tspan></text>
</g><g
                 id="g1853"
                 transform="translate(-86.933703,10.330171)"><g
                   id="g1847"
                   transform="translate(85.897639,-9.5696673)"><g
                     id="g1841"><path
                       d="m 155.875,82.156 h 23.949 v 0.73 h -23.949 z"
                       style="fill:#000000;fill-opacity:0.98765396;fill-rule:nonzero;stroke:none"
                       id="path1837"
                       inkscape:connector-curvature="0" /><path
                       d="m 182.891,82.523 -2.297,1.329 -2.301,1.328 v -5.313 l 2.301,1.328 z"
                       style="fill:#000000;fill-opacity:0.98765396;fill-rule:nonzero;stroke:none"
                       id="path1839"
                       inkscape:connector-curvature="0" /></g><text
                     id="text1845"
                     y="88.067497"
                     x="192.67531"
                     style="font-style:normal;font-variant:normal;font-weight:normal;font-stretch:normal;font-size:30px;line-height:1.25;font-family:Inconsolata;-inkscape-font-specification:Inconsolata;letter-spacing:0px;word-spacing:0px;fill:#000000;fill-opacity:1;stroke:none;stroke-width:0.75"
                     xml:space="preserve"><tspan
                       style="font-style:normal;font-variant:normal;font-weight:normal;font-stretch:normal;font-size:18px;font-family:Inconsolata;-inkscape-font-specification:Inconsolata;stroke-width:0.75"
                       y="88.067497"
                       x="192.67531"
                       id="tspan1843"
                       sodipodi:role="line">1</tspan></text>
</g><text
                   id="text1851"
                   y="77.066833"
                   x="223.99329"
                   style="font-style:normal;font-variant:normal;font-weight:normal;font-stretch:normal;font-size:30px;line-height:1.25;font-family:Inconsolata;-inkscape-font-specification:Inconsolata;letter-spacing:0px;word-spacing:0px;fill:#000000;fill-opacity:1;stroke:none;stroke-width:0.75"
                   xml:space="preserve"><tspan
                     style="font-style:normal;font-variant:normal;font-weight:normal;font-stretch:normal;font-size:18px;font-family:Inconsolata;-inkscape-font-specification:Inconsolata;stroke-width:0.75"
                     y="77.066833"
                     x="223.99329"
                     id="tspan1849"
                     sodipodi:role="line">n</tspan></text>
</g></g></g><text
             xml:space="preserve"
             style="font-style:normal;font-variant:normal;font-weight:normal;font-stretch:normal;font-size:30px;line-height:1.25;font-family:Inconsolata;-inkscape-font-specification:Inconsolata;letter-spacing:0px;word-spacing:0px;fill:#000000;fill-opacity:1;stroke:none;stroke-width:0.75"
             x="24.479443"
             y="194.9185"
             id="text2043"><tspan
               sodipodi:role="line"
               id="tspan2041"
               x="24.479443"
               y="194.9185"
               style="font-style:normal;font-variant:normal;font-weight:normal;font-stretch:normal;font-size:18px;font-family:Inconsolata;-inkscape-font-specification:Inconsolata;stroke-width:0.75">factorial</tspan></text>
</g><g
           id="g2119"><g
             id="g1942"><path
               inkscape:connector-curvature="0"
               id="path1389"
               style="fill:#e6e6e6;fill-opacity:0.98765396;fill-rule:nonzero;stroke:none"
               d="m 126.496,221.414 h 346.891 v 41.949 H 126.496 Z" /><g
               id="g1911"
               transform="translate(1.4890885,159.1945)"><g
                 transform="translate(-4.4635429,-0.96749999)"
                 id="g1873"><g
                   id="g1867"
                   transform="translate(139.25478,1.8270037)"><g
                     id="g1861"><path
                       d="m 155.875,82.156 h 23.949 v 0.73 h -23.949 z"
                       style="fill:#000000;fill-opacity:0.98765396;fill-rule:nonzero;stroke:none"
                       id="path1857"
                       inkscape:connector-curvature="0" /><path
                       d="m 182.891,82.523 -2.297,1.329 -2.301,1.328 v -5.313 l 2.301,1.328 z"
                       style="fill:#000000;fill-opacity:0.98765396;fill-rule:nonzero;stroke:none"
                       id="path1859"
                       inkscape:connector-curvature="0" /></g><text
                     id="text1865"
                     y="88.067497"
                     x="192.67531"
                     style="font-style:normal;font-variant:normal;font-weight:normal;font-stretch:normal;font-size:30px;line-height:1.25;font-family:Inconsolata;-inkscape-font-specification:Inconsolata;letter-spacing:0px;word-spacing:0px;fill:#000000;fill-opacity:1;stroke:none;stroke-width:0.75"
                     xml:space="preserve"><tspan
                       style="font-style:normal;font-variant:normal;font-weight:normal;font-stretch:normal;font-size:18px;font-family:Inconsolata;-inkscape-font-specification:Inconsolata;stroke-width:0.75"
                       y="88.067497"
                       x="192.67531"
                       id="tspan1863"
                       sodipodi:role="line">1</tspan></text>
</g><text
                   id="text1871"
                   y="88.463501"
                   x="223.99329"
                   style="font-style:normal;font-variant:normal;font-weight:normal;font-stretch:normal;font-size:30px;line-height:1.25;font-family:Inconsolata;-inkscape-font-specification:Inconsolata;letter-spacing:0px;word-spacing:0px;fill:#000000;fill-opacity:1;stroke:none;stroke-width:0.75"
                   xml:space="preserve"><tspan
                     style="font-style:normal;font-variant:normal;font-weight:normal;font-stretch:normal;font-size:18px;font-family:Inconsolata;-inkscape-font-specification:Inconsolata;stroke-width:0.75"
                     y="88.463501"
                     x="223.99329"
                     id="tspan1869"
                     sodipodi:role="line">recurse</tspan></text>
</g><g
                 transform="translate(9.3245617)"
                 id="g1891"><g
                   transform="translate(251.14937,1.8270037)"
                   id="g1885"><g
                     id="g1879"><path
                       inkscape:connector-curvature="0"
                       id="path1875"
                       style="fill:#000000;fill-opacity:0.98765396;fill-rule:nonzero;stroke:none"
                       d="m 155.875,82.156 h 23.949 v 0.73 h -23.949 z" /><path
                       inkscape:connector-curvature="0"
                       id="path1877"
                       style="fill:#000000;fill-opacity:0.98765396;fill-rule:nonzero;stroke:none"
                       d="m 182.891,82.523 -2.297,1.329 -2.301,1.328 v -5.313 l 2.301,1.328 z" /></g><text
                     xml:space="preserve"
                     style="font-style:normal;font-variant:normal;font-weight:normal;font-stretch:normal;font-size:30px;line-height:1.25;font-family:Inconsolata;-inkscape-font-specification:Inconsolata;letter-spacing:0px;word-spacing:0px;fill:#000000;fill-opacity:1;stroke:none;stroke-width:0.75"
                     x="192.67531"
                     y="88.067497"
                     id="text1883"><tspan
                       sodipodi:role="line"
                       id="tspan1881"
                       x="192.67531"
                       y="88.067497"
                       style="font-style:normal;font-variant:normal;font-weight:normal;font-stretch:normal;font-size:18px;font-family:Inconsolata;-inkscape-font-specification:Inconsolata;stroke-width:0.75">1</tspan></text>
</g><text
                   xml:space="preserve"
                   style="font-style:normal;font-variant:normal;font-weight:normal;font-stretch:normal;font-size:30px;line-height:1.25;font-family:Inconsolata;-inkscape-font-specification:Inconsolata;letter-spacing:0px;word-spacing:0px;fill:#000000;fill-opacity:1;stroke:none;stroke-width:0.75"
                   x="346.24847"
                   y="88.463501"
                   id="text1889"><tspan
                     sodipodi:role="line"
                     id="tspan1887"
                     x="346.24847"
                     y="88.463501"
                     style="font-style:normal;font-variant:normal;font-weight:normal;font-stretch:normal;font-size:18px;font-family:Inconsolata;-inkscape-font-specification:Inconsolata;stroke-width:0.75">result</tspan></text>
</g><g
                 transform="translate(-86.933703,10.330171)"
                 id="g1909"><g
                   transform="translate(85.897639,-9.5696673)"
                   id="g1903"><g
                     id="g1897"><path
                       inkscape:connector-curvature="0"
                       id="path1893"
                       style="fill:#000000;fill-opacity:0.98765396;fill-rule:nonzero;stroke:none"
                       d="m 155.875,82.156 h 23.949 v 0.73 h -23.949 z" /><path
                       inkscape:connector-curvature="0"
                       id="path1895"
                       style="fill:#000000;fill-opacity:0.98765396;fill-rule:nonzero;stroke:none"
                       d="m 182.891,82.523 -2.297,1.329 -2.301,1.328 v -5.313 l 2.301,1.328 z" /></g><text
                     xml:space="preserve"
                     style="font-style:normal;font-variant:normal;font-weight:normal;font-stretch:normal;font-size:30px;line-height:1.25;font-family:Inconsolata;-inkscape-font-specification:Inconsolata;letter-spacing:0px;word-spacing:0px;fill:#000000;fill-opacity:1;stroke:none;stroke-width:0.75"
                     x="192.67531"
                     y="88.067497"
                     id="text1901"><tspan
                       sodipodi:role="line"
                       id="tspan1899"
                       x="192.67531"
                       y="88.067497"
                       style="font-style:normal;font-variant:normal;font-weight:normal;font-stretch:normal;font-size:18px;font-family:Inconsolata;-inkscape-font-specification:Inconsolata;stroke-width:0.75">1</tspan></text>
</g><text
                   xml:space="preserve"
                   style="font-style:normal;font-variant:normal;font-weight:normal;font-stretch:normal;font-size:30px;line-height:1.25;font-family:Inconsolata;-inkscape-font-specification:Inconsolata;letter-spacing:0px;word-spacing:0px;fill:#000000;fill-opacity:1;stroke:none;stroke-width:0.75"
                   x="223.99329"
                   y="77.066833"
                   id="text1907"><tspan
                     sodipodi:role="line"
                     id="tspan1905"
                     x="223.99329"
                     y="77.066833"
                     style="font-style:normal;font-variant:normal;font-weight:normal;font-stretch:normal;font-size:18px;font-family:Inconsolata;-inkscape-font-specification:Inconsolata;stroke-width:0.75">n</tspan></text>
</g></g></g><text
             xml:space="preserve"
             style="font-style:normal;font-variant:normal;font-weight:normal;font-stretch:normal;font-size:30px;line-height:1.25;font-family:Inconsolata;-inkscape-font-specification:Inconsolata;letter-spacing:0px;word-spacing:0px;fill:#000000;fill-opacity:1;stroke:none;stroke-width:0.75"
             x="24.479443"
             y="248.32851"
             id="text2047"><tspan
               sodipodi:role="line"
               id="tspan2045"
               x="24.479443"
               y="248.32851"
               style="font-style:normal;font-variant:normal;font-weight:normal;font-stretch:normal;font-size:18px;font-family:Inconsolata;-inkscape-font-specification:Inconsolata;stroke-width:0.75">factorial</tspan></text>
</g><g
           id="g2192"><path
             d="M 126.496,8.137 H 473.387 V 50.086 H 126.496 Z"
             style="fill:#e6e6e6;fill-opacity:0.98765396;fill-rule:nonzero;stroke:none"
             id="path1277"
             inkscape:connector-curvature="0" /><text
             xml:space="preserve"
             style="font-style:normal;font-variant:normal;font-weight:normal;font-stretch:normal;font-size:30px;line-height:1.25;font-family:Inconsolata;-inkscape-font-specification:Inconsolata;letter-spacing:0px;word-spacing:0px;fill:#000000;fill-opacity:1;stroke:none;stroke-width:0.75"
             x="24.929443"
             y="34.9165"
             id="text2051"><tspan
               sodipodi:role="line"
               id="tspan2049"
               x="24.929443"
               y="34.9165"
               style="font-style:normal;font-variant:normal;font-weight:normal;font-stretch:normal;font-size:18px;font-family:Inconsolata;-inkscape-font-specification:Inconsolata;stroke-width:0.75">main</tspan></text>
</g><g
           id="g2226"><g
             id="g2206"><text
               id="text1409"
               style="font-style:normal;font-variant:normal;font-weight:normal;font-stretch:normal;font-size:13.91016483px;font-family:Inconsolata;-inkscape-font-specification:Inconsolata;writing-mode:lr-tb;fill:#000000;fill-opacity:1;fill-rule:nonzero;stroke:none;stroke-width:0.99995083"
               transform="scale(0.99995082,1.0000492)"
               x="502.17032"
               y="165.80768"><tspan
                 id="tspan1407"
                 y="165.80768"
                 x="502.17032"
                 style="font-style:normal;font-variant:normal;font-weight:normal;font-stretch:normal;font-family:Inconsolata;-inkscape-font-specification:Inconsolata;stroke-width:0.99995083">1</tspan></text>
<path
               inkscape:connector-curvature="0"
               id="path1411"
               style="fill:#000000;fill-opacity:1;fill-rule:nonzero;stroke:none"
               d="m 479.625,139.281 c -0.27,-0.004 -0.543,0.078 -0.785,0.266 l -4.504,3.445 c -0.129,0.098 -0.238,0.215 -0.328,0.348 -0.375,0.547 -0.43,1.332 -0.09,1.957 l 2.902,5.344 c 0.418,0.773 1.289,0.996 1.938,0.496 0.652,-0.496 0.84,-1.528 0.422,-2.301 l -1.094,-2.016 c 2.09,0.59 4.051,1.735 5.738,3.368 6.117,5.921 7.035,16.644 2.047,23.906 -3.117,4.543 -7.816,6.672 -12.398,6.183 v 3.336 c 5.398,0.481 10.902,-2.066 14.574,-7.41 5.969,-8.687 4.867,-21.515 -2.449,-28.598 -2.012,-1.949 -4.352,-3.316 -6.852,-4.023 l 1.613,-1.234 c 0.649,-0.5 0.84,-1.532 0.418,-2.305 -0.261,-0.481 -0.699,-0.75 -1.152,-0.762 z" /></g><path
             d="m 479.625,87.469 c -0.27,-0.004 -0.543,0.082 -0.785,0.265 l -4.504,3.446 c -0.129,0.097 -0.238,0.215 -0.328,0.347 -0.375,0.547 -0.43,1.336 -0.09,1.957 l 2.902,5.344 c 0.418,0.774 1.289,0.996 1.938,0.496 0.652,-0.496 0.84,-1.527 0.422,-2.301 l -1.094,-2.015 c 2.09,0.59 4.051,1.734 5.738,3.367 6.117,5.922 7.035,16.645 2.047,23.91 -3.117,4.539 -7.816,6.668 -12.398,6.18 v 3.336 c 5.398,0.48 10.902,-2.063 14.574,-7.41 5.969,-8.688 4.867,-21.516 -2.449,-28.598 -2.012,-1.949 -4.352,-3.316 -6.852,-4.023 l 1.613,-1.235 c 0.649,-0.5 0.84,-1.527 0.418,-2.301 -0.261,-0.484 -0.699,-0.754 -1.152,-0.765 z"
             style="fill:#000000;fill-opacity:1;fill-rule:nonzero;stroke:none"
             id="path1417"
             inkscape:connector-curvature="0" /><g
             id="g2197"><text
               id="text1421"
               style="font-variant:normal;font-weight:500;font-size:13.91016483px;font-family:'Noto Sans Mono Med';-inkscape-font-specification:NotoSansMono-Medium;writing-mode:lr-tb;fill:#000000;fill-opacity:1;fill-rule:nonzero;stroke:none;stroke-width:0.99995083"
               transform="scale(0.99995082,1.0000492)"
               x="502.17032"
               y="60.726723"><tspan
                 id="tspan1419"
                 y="60.726723"
                 x="502.17032"
                 style="font-style:normal;font-variant:normal;font-weight:normal;font-stretch:normal;font-family:Inconsolata;-inkscape-font-specification:Inconsolata;stroke-width:0.99995083">6</tspan></text>
<path
               inkscape:connector-curvature="0"
               id="path1423"
               style="fill:#000000;fill-opacity:1;fill-rule:nonzero;stroke:none"
               d="m 479.625,34.223 c -0.27,-0.008 -0.543,0.078 -0.785,0.265 l -4.504,3.446 c -0.129,0.097 -0.238,0.214 -0.328,0.347 -0.375,0.543 -0.43,1.332 -0.09,1.953 l 2.902,5.344 c 0.418,0.774 1.289,1 1.938,0.5 0.652,-0.5 0.84,-1.531 0.422,-2.305 l -1.094,-2.011 c 2.09,0.586 4.051,1.734 5.738,3.367 6.117,5.918 7.035,16.644 2.047,23.906 -3.117,4.543 -7.816,6.672 -12.398,6.18 v 3.34 c 5.398,0.48 10.902,-2.067 14.574,-7.414 5.969,-8.684 4.867,-21.516 -2.449,-28.598 -2.012,-1.945 -4.352,-3.313 -6.852,-4.02 l 1.613,-1.234 c 0.649,-0.5 0.84,-1.531 0.418,-2.305 -0.261,-0.484 -0.699,-0.75 -1.152,-0.761 z" /></g><g
             id="g2211"><path
               inkscape:connector-curvature="0"
               id="path1405"
               style="fill:#000000;fill-opacity:1;fill-rule:nonzero;stroke:none"
               d="m 479.625,192.531 c -0.27,-0.008 -0.543,0.078 -0.785,0.266 l -4.504,3.441 c -0.129,0.098 -0.238,0.219 -0.328,0.352 -0.375,0.543 -0.43,1.332 -0.09,1.953 l 2.902,5.344 c 0.418,0.773 1.289,0.996 1.938,0.5 0.652,-0.5 0.84,-1.532 0.422,-2.305 l -1.094,-2.016 c 2.09,0.59 4.051,1.739 5.738,3.368 6.117,5.921 7.035,16.648 2.047,23.91 -3.117,4.539 -7.816,6.668 -12.398,6.179 v 3.336 c 5.398,0.481 10.902,-2.062 14.574,-7.41 5.969,-8.687 4.867,-21.515 -2.449,-28.597 -2.012,-1.95 -4.352,-3.317 -6.852,-4.02 l 1.613,-1.238 c 0.649,-0.496 0.84,-1.528 0.418,-2.301 -0.261,-0.484 -0.699,-0.75 -1.152,-0.762 z" /><text
               y="219.0529"
               x="502.07874"
               transform="scale(0.99995081,1.0000492)"
               style="font-style:normal;font-variant:normal;font-weight:normal;font-stretch:normal;font-size:13.91016483px;font-family:Inconsolata;-inkscape-font-specification:Inconsolata;writing-mode:lr-tb;fill:#000000;fill-opacity:1;fill-rule:nonzero;stroke:none;stroke-width:0.99995083"
               id="text2201"><tspan
                 style="font-style:normal;font-variant:normal;font-weight:normal;font-stretch:normal;font-family:Inconsolata;-inkscape-font-specification:Inconsolata;stroke-width:0.99995083"
                 x="502.07874"
                 y="219.0529"
                 id="tspan2199">1</tspan></text>
</g></g></g></g></g></svg>